{
    "selectors": [
        {
            "id": "1",
            "name": "okaz - local",
            "text_id_pars": "",
            "rss_url": "OKAZ_online"
        },
        {
            "id": "2",
            "name": "BBC",
            "text_id_pars": null,
            "rss_url": "bbc"
        },
        {
            "id": "8",
            "name": "FCBarcelona",
            "text_id_pars": null,
            "rss_url": "FCBarcelona_ara"
        },
        {
            "id": "9",
            "name": "Alsharq",
            "text_id_pars": null,
            "rss_url": "alShrqNews"
        },
        {
            "id": "10",
            "name": "Alarab",
            "text_id_pars": null,
            "rss_url": "AlArab_Qatar"
        },
        {
            "id": "11",
            "name": "Al-jazirah -General ",
            "text_id_pars": null,
            "rss_url": "al_jazirah"
        },
        {
            "id": "14",
            "name": "alwatan",
            "text_id_pars": ".EDN_article_content",
            "rss_url": "al_watanQatar"
        },
        {
            "id": "15",
            "name": "Al Raya",
            "text_id_pars": null,
            "rss_url": "alraya_n"
        },
        {
            "id": "16",
            "name": "Qatar News Agency",
            "text_id_pars": "#descText",
            "rss_url": "QatarNewsAgency"
        },
        {
            "id": "18",
            "name": "alwatan saudi ",
            "text_id_pars": ".article p",
            "rss_url": "AlwatanSA"
        },
        {
            "id": "19",
            "name": "alriyadh",
            "text_id_pars": ".article-desc",
            "rss_url": "AlRiyadh"
        },
        {
            "id": "20",
            "name": "sabq",
            "text_id_pars": null,
            "rss_url": "sabqorg"
        },
        {
            "id": "21",
            "name": "Saudi Press Agency",
            "text_id_pars": null,
            "rss_url": "spagov"
        },
        {
            "id": "22",
            "name": "albayan",
            "text_id_pars": null,
            "rss_url": "AlBayanNews"
        },
        {
            "id": "23",
            "name": "emaratalyoum",
            "text_id_pars": "#article-body p",
            "rss_url": "emaratalyoum"
        },
        {
            "id": "24",
            "name": "alkhaleej",
            "text_id_pars": null,
            "rss_url": "alkhaleej"
        },
        {
            "id": "25",
            "name": "alittihad",
            "text_id_pars": null,
            "rss_url": "aletihadae"
        },
        {
            "id": "26",
            "name": "alrai",
            "text_id_pars": ".ArticleText",
            "rss_url": "AlraiMediaGroup"
        },
        {
            "id": "27",
            "name": "alwatan kuwait",
            "text_id_pars": null,
            "rss_url": "WatanNews"
        },
        {
            "id": "28",
            "name": " alqabas",
            "text_id_pars": "#maincontentarea p",
            "rss_url": "alqabas"
        },
        {
            "id": "29",
            "name": "alanba",
            "text_id_pars": "#tblarticle p",
            "rss_url": "AlAnba_News_KW"
        },
        {
            "id": "30",
            "name": "Kuwait News Agency",
            "text_id_pars": null,
            "rss_url": "kuna_ar"
        },
        {
            "id": "31",
            "name": "akhbar alkhaleej",
            "text_id_pars": ".article p",
            "rss_url": "AAK_News"
        },
        {
            "id": "32",
            "name": "alwasat - sport",
            "text_id_pars": null,
            "rss_url": "AlwasatSport"
        },
        {
            "id": "34",
            "name": "alwatan Bahrain",
            "text_id_pars": "#ContentPlaceHolder1_News1_lblNewsContent",
            "rss_url": "Alwatan_Live"
        },
        {
            "id": "35",
            "name": "Bahrain News Agency",
            "text_id_pars": null,
            "rss_url": "bna_ar"
        },
        {
            "id": "36",
            "name": "oman daily",
            "text_id_pars": ".entry-content p",
            "rss_url": "omandaily1"
        },
        {
            "id": "37",
            "name": "shabiba",
            "text_id_pars": null,
            "rss_url": "shabiba"
        },
        {
            "id": "38",
            "name": "alroya",
            "text_id_pars": ".post-text2 p",
            "rss_url": "AlroyaNewspaper"
        },
        {
            "id": "39",
            "name": "Oman News Agency",
            "text_id_pars": null,
            "rss_url": "OmanNewsAgency"
        },
        {
            "id": "40",
            "name": "youm7",
            "text_id_pars": ".articleCont p",
            "rss_url": "youm7"
        },
        {
            "id": "41",
            "name": "almasryalyoum",
            "text_id_pars": "#NewsStory p",
            "rss_url": "AlMasryAlYoum"
        },
        {
            "id": "42",
            "name": "ahram gate",
            "text_id_pars": ".right_bref_outer p",
            "rss_url": "AlAhramGate"
        },
        {
            "id": "43",
            "name": "shorouk",
            "text_id_pars": ".innerNews p",
            "rss_url": "Shorouk_News"
        },
        {
            "id": "44",
            "name": "elwatan news",
            "text_id_pars": "#divArtContento",
            "rss_url": "ElwatanNews"
        },
        {
            "id": "45",
            "name": "O News Agency",
            "text_id_pars": null,
            "rss_url": "ONewsAgency"
        },
        {
            "id": "46",
            "name": "almustaqbal",
            "text_id_pars": "#articlebdy",
            "rss_url": "AlmustaqbalAUP"
        },
        {
            "id": "47",
            "name": "annahar",
            "text_id_pars": ".text p",
            "rss_url": "Annahar"
        },
        {
            "id": "48",
            "name": "National News Agency",
            "text_id_pars": null,
            "rss_url": "NNALeb"
        },
        {
            "id": "49",
            "name": "alghad",
            "text_id_pars": "#article_text p",
            "rss_url": "AlghadNews"
        },
        {
            "id": "50",
            "name": "addustour",
            "text_id_pars": "#page_main_contentarea_bot_inner p",
            "rss_url": "Adustour"
        },
        {
            "id": "51",
            "name": " alrai Jordanian",
            "text_id_pars": ". articleBody p",
            "rss_url": "alrai"
        },
        {
            "id": "52",
            "name": "assawsana",
            "text_id_pars": null,
            "rss_url": "assawsanaNews"
        },
        {
            "id": "53",
            "name": "petra",
            "text_id_pars": null,
            "rss_url": "Petranews"
        },
        {
            "id": "54",
            "name": "alquds",
            "text_id_pars": "#article p",
            "rss_url": "alqudsnewspaper"
        },
        {
            "id": "56",
            "name": "quds press",
            "text_id_pars": null,
            "rss_url": "qudspress"
        },
        {
            "id": "57",
            "name": "Quds News",
            "text_id_pars": "#content-main p",
            "rss_url": "qudsn"
        },
        {
            "id": "58",
            "name": "The Palestinian Information Center ",
            "text_id_pars": null,
            "rss_url": "PalinfoAr"
        },
        {
            "id": "59",
            "name": "alchourouk",
            "text_id_pars": ".conteneur_restearticle p",
            "rss_url": "Al_chourouk"
        },
        {
            "id": "60",
            "name": "DarAssabah",
            "text_id_pars": ".field-type-text-with-summary p",
            "rss_url": "Assabah_Tunisie"
        },
        {
            "id": "61",
            "name": "alikhbariaattounisia",
            "text_id_pars": null,
            "rss_url": "alikhbaria"
        },
        {
            "id": "62",
            "name": "assabah news",
            "text_id_pars": ".field-type-text-with-summary p",
            "rss_url": "ASSABAHNEWS1"
        },
        {
            "id": "63",
            "name": "ennahar",
            "text_id_pars": ".article",
            "rss_url": "ennaharonline"
        },
        {
            "id": "64",
            "name": "echoroukonline",
            "text_id_pars": null,
            "rss_url": "echoroukonline"
        },
        {
            "id": "65",
            "name": "elkhabar",
            "text_id_pars": "#body_content p",
            "rss_url": "elkhabarlive"
        },
        {
            "id": "66",
            "name": "elmassar",
            "text_id_pars": "#article_body span",
            "rss_url": "ElmassarElarabi"
        },
        {
            "id": "67",
            "name": "okaz - politics",
            "text_id_pars": null,
            "rss_url": "Okaz_Policy"
        },
        {
            "id": "68",
            "name": "Emarits News Agency",
            "text_id_pars": null,
            "rss_url": "wamnews"
        },
        {
            "id": "70",
            "name": "alwasat news",
            "text_id_pars": ".c-main p",
            "rss_url": "alwasatnews"
        },
        {
            "id": "71",
            "name": "Alayam News",
            "text_id_pars": ".detail p",
            "rss_url": "ALAYAM"
        },
        {
            "id": "74",
            "name": "eanlibya",
            "text_id_pars": ".entry-content p,.entry p",
            "rss_url": "EanLibya"
        },
        {
            "id": "75",
            "name": "almanaramedia",
            "text_id_pars": null,
            "rss_url": "AlmanaraMedia"
        },
        {
            "id": "76",
            "name": "etilaf",
            "text_id_pars": null,
            "rss_url": "syriancoalition"
        },
        {
            "id": "78",
            "name": "almada",
            "text_id_pars": null,
            "rss_url": "madanewspaper"
        },
        {
            "id": "79",
            "name": "aliraq news",
            "text_id_pars": null,
            "rss_url": "aliraqnews"
        },
        {
            "id": "80",
            "name": "Saba Net",
            "text_id_pars": null,
            "rss_url": "sabanew_"
        },
        {
            "id": "81",
            "name": " barakish net",
            "text_id_pars": null,
            "rss_url": "barakish_net"
        },
        {
            "id": "82",
            "name": "yemen press",
            "text_id_pars": null,
            "rss_url": "yepress"
        },
        {
            "id": "83",
            "name": "aden post",
            "text_id_pars": null,
            "rss_url": "Aden_post"
        },
        {
            "id": "84",
            "name": "alkhabar",
            "text_id_pars": null,
            "rss_url": "AlkhabarNow"
        },
        {
            "id": "85",
            "name": "sudan motion",
            "text_id_pars": ".post-entry p",
            "rss_url": "SudanMotion"
        },
        {
            "id": "86",
            "name": "ashorooq",
            "text_id_pars": null,
            "rss_url": "ashorooqtv"
        },
        {
            "id": "87",
            "name": "The New York Times",
            "text_id_pars": null,
            "rss_url": "nytimes"
        },
        {
            "id": "88",
            "name": "TIME",
            "text_id_pars": null,
            "rss_url": "TIME"
        },
        {
            "id": "89",
            "name": "The Washington Post",
            "text_id_pars": null,
            "rss_url": "washingtonpost"
        },
        {
            "id": "90",
            "name": "USA TODAY",
            "text_id_pars": null,
            "rss_url": "USATODAY"
        },
        {
            "id": "91",
            "name": "The Guardian",
            "text_id_pars": null,
            "rss_url": "guardian"
        },
        {
            "id": "92",
            "name": "The Independent",
            "text_id_pars": null,
            "rss_url": "Independent"
        },
        {
            "id": "93",
            "name": "The Times of London",
            "text_id_pars": null,
            "rss_url": "thetimes"
        },
        {
            "id": "94",
            "name": "Le Monde",
            "text_id_pars": null,
            "rss_url": "lemondefr"
        },
        {
            "id": "95",
            "name": "EL PA\u00cdS",
            "text_id_pars": null,
            "rss_url": "elpais_inter"
        },
        {
            "id": "96",
            "name": "Le Figaro",
            "text_id_pars": null,
            "rss_url": "Le_Figaro"
        },
        {
            "id": "97",
            "name": "Lib\u00e9ration",
            "text_id_pars": null,
            "rss_url": "libe"
        },
        {
            "id": "98",
            "name": "FRANCE 24 English",
            "text_id_pars": null,
            "rss_url": "France24_en"
        },
        {
            "id": "99",
            "name": "Itti Sport",
            "text_id_pars": null,
            "rss_url": "ittisport"
        },
        {
            "id": "100",
            "name": "Alahli FC",
            "text_id_pars": null,
            "rss_url": "ALAHLI_FC"
        },
        {
            "id": "101",
            "name": "Real Madrid C.F",
            "text_id_pars": null,
            "rss_url": "realmadridarab"
        },
        {
            "id": "103",
            "name": "Alsharq Portal",
            "text_id_pars": ".main-artcl",
            "rss_url": "alsharq_portal"
        },
        {
            "id": "104",
            "name": "Yabiladi",
            "text_id_pars": null,
            "rss_url": "YabiladiAr"
        },
        {
            "id": "105",
            "name": "Alyaoum24",
            "text_id_pars": ".text p",
            "rss_url": "alyaoum24"
        },
        {
            "id": "106",
            "name": "hespress",
            "text_id_pars": "#article_body p",
            "rss_url": "hespress"
        },
        {
            "id": "107",
            "name": "SUDAN News Agency",
            "text_id_pars": "#article",
            "rss_url": "SUNA_AGENCY"
        },
        {
            "id": "108",
            "name": "\u0627\u0644\u062c\u0632\u064a\u0631\u0629 \u0639\u0627\u062c\u0644",
            "text_id_pars": null,
            "rss_url": "AJABreaking"
        },
        {
            "id": "109",
            "name": "oman news",
            "text_id_pars": ".articles-details",
            "rss_url": "oman1_news"
        },
        {
            "id": "110",
            "name": "assafirnewspaper",
            "text_id_pars": null,
            "rss_url": "assafir"
        },
        {
            "id": "111",
            "name": "Naba News Agency",
            "text_id_pars": "#body_news p",
            "rss_url": "Naba_ps"
        },
        {
            "id": "112",
            "name": "libya future",
            "text_id_pars": null,
            "rss_url": "libya1future"
        },
        {
            "id": "113",
            "name": "libya alaan",
            "text_id_pars": null,
            "rss_url": "libyaalaan"
        },
        {
            "id": "114",
            "name": "Syria Breaking",
            "text_id_pars": ".content_inline p",
            "rss_url": "Syria_Breaking"
        },
        {
            "id": "115",
            "name": "shaam news",
            "text_id_pars": ".itemFullText p",
            "rss_url": "shaamnews"
        },
        {
            "id": "116",
            "name": "Orient News",
            "text_id_pars": ".description",
            "rss_url": "OrientNews"
        },
        {
            "id": "117",
            "name": "Alfourat",
            "text_id_pars": null,
            "rss_url": "MAlfourat"
        },
        {
            "id": "118",
            "name": "Iraq News",
            "text_id_pars": null,
            "rss_url": "IraqCntNews"
        },
        {
            "id": "119",
            "name": "sudanese online",
            "text_id_pars": null,
            "rss_url": "sudaneseonline1"
        },
        {
            "id": "120",
            "name": "Sudan Monitor Arabic",
            "text_id_pars": "#contentleft p",
            "rss_url": "SudanMonitorAR"
        },
        {
            "id": "121",
            "name": "noikchoot",
            "text_id_pars": null,
            "rss_url": "noikchoot"
        },
        {
            "id": "122",
            "name": "mauritanie now",
            "text_id_pars": ".item-page p",
            "rss_url": "rimnow"
        },
        {
            "id": "123",
            "name": "Wall Street Journal",
            "text_id_pars": null,
            "rss_url": "WSJ"
        },
        {
            "id": "124",
            "name": "The Telegraph",
            "text_id_pars": null,
            "rss_url": "Telegraph"
        },
        {
            "id": "125",
            "name": "Agence France-Presse",
            "text_id_pars": null,
            "rss_url": "afpfr"
        },
        {
            "id": "126",
            "name": "ANADOLU AGENCY ",
            "text_id_pars": null,
            "rss_url": "aa_arabic"
        },
        {
            "id": "127",
            "name": "\u0641\u0631\u0627\u0646\u0633 \u0628\u0631\u0633 \u0628\u0627\u0644\u0639\u0631\u0628\u064a\u0629",
            "text_id_pars": null,
            "rss_url": "AFPar"
        },
        {
            "id": "128",
            "name": "ASHARQ AL-AWSAT",
            "text_id_pars": null,
            "rss_url": "aawsat_News"
        },
        {
            "id": "129",
            "name": "Elaf News",
            "text_id_pars": null,
            "rss_url": "ElafNews"
        },
        {
            "id": "130",
            "name": "Middle East Online",
            "text_id_pars": null,
            "rss_url": "MeoNews"
        },
        {
            "id": "131",
            "name": "\u0648\u0643\u0627\u0644\u0629 \u0627\u0644\u062d\u062f\u062b \u0627\u0644\u062f\u0648\u0644\u064a\u0629",
            "text_id_pars": null,
            "rss_url": "alhadathpcnews"
        },
        {
            "id": "132",
            "name": "\u0628\u0648\u0627\u0628\u0629 \u0627\u0641\u0631\u064a\u0642\u064a\u0627",
            "text_id_pars": null,
            "rss_url": "AfrigateNews"
        },
        {
            "id": "133",
            "name": "Huffington Post Arabi",
            "text_id_pars": null,
            "rss_url": "HuffPostArabi"
        },
        {
            "id": "134",
            "name": "BBC Arabic",
            "text_id_pars": ".story-body__inner p",
            "rss_url": "BBCArabic"
        },
        {
            "id": "135",
            "name": "al jazeera",
            "text_id_pars": "#main-story p",
            "rss_url": "AJArabic"
        },
        {
            "id": "136",
            "name": "AlArabiya Breaking",
            "text_id_pars": null,
            "rss_url": "AlArabiya_Brk"
        },
        {
            "id": "137",
            "name": "CNN \u0628\u0627\u0644\u0639\u0631\u0628\u064a\u0629",
            "text_id_pars": ".article-left p,.body p",
            "rss_url": "cnnarabic"
        },
        {
            "id": "138",
            "name": "AlArabiya",
            "text_id_pars": ".article-body",
            "rss_url": "AlArabiya"
        },
        {
            "id": "139",
            "name": "RT Arabic",
            "text_id_pars": "",
            "rss_url": "RTarabic"
        },
        {
            "id": "140",
            "name": "\u0627\u0644\u062c\u0632\u064a\u0631\u0629 \u0645\u0628\u0627\u0634\u0631",
            "text_id_pars": "#_content p",
            "rss_url": "ajmubasher"
        },
        {
            "id": "141",
            "name": "FRANCE 24 Arabi",
            "text_id_pars": null,
            "rss_url": "France24_ar"
        },
        {
            "id": "142",
            "name": "euronews \u0639\u0640\u0640\u0631\u0628\u064a",
            "text_id_pars": "",
            "rss_url": "euronewsar"
        },
        {
            "id": "143",
            "name": "DW (\u0639\u0631\u0628\u064a\u0629)",
            "text_id_pars": null,
            "rss_url": "dw_arabic"
        },
        {
            "id": "144",
            "name": "Alhurra \u0642\u0646\u0627\u0629 \u0627\u0644\u062d\u0631\u0629",
            "text_id_pars": null,
            "rss_url": "alhurra"
        },
        {
            "id": "145",
            "name": "Akhbar | \u0623\u062e\u0628\u0627\u0631 \u0627\u0644\u0622\u0646",
            "text_id_pars": null,
            "rss_url": "akhbar"
        },
        {
            "id": "146",
            "name": "alekhbariya",
            "text_id_pars": ".field-item p",
            "rss_url": "alekhbariyatv"
        },
        {
            "id": "147",
            "name": "Sky News Arabia",
            "text_id_pars": ".article-content p",
            "rss_url": "SkyNewsArabia_B"
        },
        {
            "id": "148",
            "name": "\u0642\u0646\u0627\u0629 TRT \u0627\u0644\u0639\u0631\u0628\u064a\u0629",
            "text_id_pars": null,
            "rss_url": "TRTalarabiya"
        },
        {
            "id": "149",
            "name": "\u0627\u0644\u062a\u0644\u0641\u0632\u064a\u0648\u0646 \u0627\u0644\u0639\u0631\u0628\u064a",
            "text_id_pars": null,
            "rss_url": "AlarabyTV"
        },
        {
            "id": "150",
            "name": "CNN Breaking News",
            "text_id_pars": null,
            "rss_url": "cnnbrk"
        },
        {
            "id": "151",
            "name": "CNN",
            "text_id_pars": null,
            "rss_url": "cnn"
        },
        {
            "id": "152",
            "name": "BBC Breaking News",
            "text_id_pars": null,
            "rss_url": "BBCBreaking"
        },
        {
            "id": "153",
            "name": "BBC News (World)",
            "text_id_pars": ".story-body__inner p",
            "rss_url": "BBCWorld"
        },
        {
            "id": "154",
            "name": "Reuters Top News",
            "text_id_pars": null,
            "rss_url": "Reuters"
        },
        {
            "id": "155",
            "name": "The Associated Press",
            "text_id_pars": null,
            "rss_url": "AP"
        },
        {
            "id": "156",
            "name": "Huffington Post",
            "text_id_pars": null,
            "rss_url": "HuffingtonPost"
        },
        {
            "id": "157",
            "name": "Aljazeera English",
            "text_id_pars": null,
            "rss_url": "AJEnglish"
        },
        {
            "id": "158",
            "name": "Al Arabiya English",
            "text_id_pars": null,
            "rss_url": "AlArabiya_Eng"
        },
        {
            "id": "159",
            "name": "FRANCE 24 Fran\u00e7ais",
            "text_id_pars": null,
            "rss_url": "France24_fr"
        },
        {
            "id": "160",
            "name": "AFP news agency",
            "text_id_pars": null,
            "rss_url": "AFP"
        },
        {
            "id": "161",
            "name": "Gouvernement",
            "text_id_pars": null,
            "rss_url": "gouvernementFR"
        },
        {
            "id": "162",
            "name": "Le HuffPost",
            "text_id_pars": null,
            "rss_url": "LeHuffPost"
        },
        {
            "id": "163",
            "name": "CNN France",
            "text_id_pars": null,
            "rss_url": "CNNFrancePR"
        },
        {
            "id": "164",
            "name": "\u0627\u0644\u0646\u0627\u062f\u064a \u0627\u0644\u0627\u0647\u0644\u064a \u0627\u0644\u0645\u0635\u0631\u064a",
            "text_id_pars": null,
            "rss_url": "AlAhly"
        },
        {
            "id": "165",
            "name": "\u0627\u062e\u0628\u0627\u0631 \u0646\u0627\u062f\u064a \u0627\u0644\u0632\u0645\u0627\u0644\u0643",
            "text_id_pars": null,
            "rss_url": "zamalekclub"
        },
        {
            "id": "166",
            "name": "\u0646\u0627\u062f\u064a \u0627\u0644\u0646\u0635\u0631 \u0627\u0644\u0633\u0639\u0648\u062f\u064a",
            "text_id_pars": null,
            "rss_url": "AlNassrFC"
        },
        {
            "id": "167",
            "name": "\u0646\u0627\u062f\u064a \u0627\u0644\u0647\u0644\u0627\u0644 \u0627\u0644\u0633\u0639\u0648\u062f\u064a",
            "text_id_pars": null,
            "rss_url": "Alhilal_FC"
        },
        {
            "id": "168",
            "name": "\u0645\u0648\u0642\u0639 \u0643\u0648\u0631\u0629 \u0627\u0648\u0646 \u0644\u0627\u064a\u0646",
            "text_id_pars": null,
            "rss_url": "kooraonlinefans"
        },
        {
            "id": "169",
            "name": "\u064a\u0644\u0627 \u0643\u0648\u0631\u0629",
            "text_id_pars": null,
            "rss_url": "yala_koora"
        },
        {
            "id": "170",
            "name": "AlAhram Sports",
            "text_id_pars": null,
            "rss_url": "AlAhramSports"
        },
        {
            "id": "171",
            "name": "\u062f\u0648\u0631\u064a \u0641\u064a\u0641\u0627",
            "text_id_pars": null,
            "rss_url": "Dawriviva"
        },
        {
            "id": "172",
            "name": "\u0635\u062f\u0649 \u0627\u0644\u0645\u0644\u0627\u0639\u0628",
            "text_id_pars": null,
            "rss_url": "sadaalmalaeb"
        },
        {
            "id": "173",
            "name": "\u0645\u0648\u0642\u0639 \u062c\u0648\u0644.\u0643\u0648\u0645",
            "text_id_pars": null,
            "rss_url": "goaleg"
        },
        {
            "id": "174",
            "name": "FilGoal.com",
            "text_id_pars": null,
            "rss_url": "FilGoalLive"
        },
        {
            "id": "175",
            "name": "FilGoal",
            "text_id_pars": null,
            "rss_url": "FilGoal"
        },
        {
            "id": "176",
            "name": "\u062a\u0637\u0628\u064a\u0642 \u064a\u0627\u0647\u0648 \u0643\u0631\u0629 \u0642\u062f\u0645",
            "text_id_pars": null,
            "rss_url": "YM_Football"
        },
        {
            "id": "177",
            "name": "\u0627\u0644\u062f\u0648\u0631\u064a \u0627\u0644\u0627\u0646\u062c\u0644\u064a\u0632\u064a",
            "text_id_pars": null,
            "rss_url": "EPLArabic"
        },
        {
            "id": "178",
            "name": "\u0647\u0627\u064a \u0643\u0648\u0631\u0629",
            "text_id_pars": null,
            "rss_url": "hihi2site"
        },
        {
            "id": "179",
            "name": "\u0627\u0644\u0639\u0631\u0628\u064a\u0629 - \u0641\u064a \u0627\u0644\u0645\u0631\u0645\u0649",
            "text_id_pars": null,
            "rss_url": "FilMarma"
        },
        {
            "id": "180",
            "name": "\u0627\u0644\u0631\u0627\u064a\u0629 \u0627\u0644\u0631\u064a\u0627\u0636\u064a\u0629",
            "text_id_pars": null,
            "rss_url": "alraya_s"
        },
        {
            "id": "181",
            "name": "\u0627\u0644\u0647\u062f\u0627\u0641 \u0627\u0644\u062f\u0648\u0644\u064a",
            "text_id_pars": null,
            "rss_url": "JOURNALLLLL"
        },
        {
            "id": "182",
            "name": "\u0645\u0648\u0642\u0639 \u0644\u0639\u0628\u062a\u0646\u0627 \u0627\u0644\u0631\u064a\u0627\u0636\u064a",
            "text_id_pars": null,
            "rss_url": "lo3btna"
        },
        {
            "id": "183",
            "name": "Alahednews Sports",
            "text_id_pars": "",
            "rss_url": "alahedsports"
        },
        {
            "id": "184",
            "name": "beIN SPORTS FR",
            "text_id_pars": null,
            "rss_url": "beinsports_FR"
        },
        {
            "id": "185",
            "name": "\u0627\u0644\u0639\u0631\u0628\u064a\u0629 \u0631\u064a\u0627\u0636\u0629",
            "text_id_pars": ".article-body p",
            "rss_url": "AlArabiya_spt"
        },
        {
            "id": "186",
            "name": "\u0642\u0646\u0627\u0629 \u062f\u0628\u064a \u0627\u0644\u0631\u064a\u0627\u0636\u064a\u0629",
            "text_id_pars": ".html-output p",
            "rss_url": "dubaisportstv"
        },
        {
            "id": "187",
            "name": "YAS SPORTS",
            "text_id_pars": null,
            "rss_url": "yassportsTV"
        },
        {
            "id": "188",
            "name": "Dubai Racing Channel",
            "text_id_pars": null,
            "rss_url": "DubaiRacingTV"
        },
        {
            "id": "189",
            "name": "Real Madrid C.F.",
            "text_id_pars": null,
            "rss_url": "realmadriden"
        },
        {
            "id": "190",
            "name": "FC Barcelona",
            "text_id_pars": null,
            "rss_url": "FCBarcelona"
        },
        {
            "id": "191",
            "name": "Champions League",
            "text_id_pars": null,
            "rss_url": "ChampionsLeague"
        },
        {
            "id": "192",
            "name": "FIFA.com",
            "text_id_pars": "",
            "rss_url": "FIFAcom"
        },
        {
            "id": "193",
            "name": "BBC Sport",
            "text_id_pars": null,
            "rss_url": "BBCSport"
        },
        {
            "id": "194",
            "name": "beIN SPORTS",
            "text_id_pars": null,
            "rss_url": "beINSPORTS"
        },
        {
            "id": "195",
            "name": "talkSPORT",
            "text_id_pars": null,
            "rss_url": "talkSPORT"
        },
        {
            "id": "196",
            "name": "Guardian sport",
            "text_id_pars": null,
            "rss_url": "guardian_sport"
        },
        {
            "id": "197",
            "name": "L\\\u00c9QUIPE",
            "text_id_pars": null,
            "rss_url": "lequipe"
        },
        {
            "id": "198",
            "name": "France Football",
            "text_id_pars": null,
            "rss_url": "francefootball"
        },
        {
            "id": "199",
            "name": "Dynamic Sports QLD",
            "text_id_pars": null,
            "rss_url": "DSF_QLD"
        },
        {
            "id": "200",
            "name": "CNBC Arabia",
            "text_id_pars": "#maincontent p",
            "rss_url": "CNBCArabia"
        },
        {
            "id": "201",
            "name": "\u0642\u0646\u0627\u0629 \u0627\u0644\u0627\u0642\u062a\u0635\u0627\u062f\u064a\u0629",
            "text_id_pars": null,
            "rss_url": "EqtisadiyaTV"
        },
        {
            "id": "202",
            "name": "\u0633\u0643\u0627\u064a \u0646\u064a\u0648\u0632 - \u0625\u0642\u062a\u0635\u0627\u062f",
            "text_id_pars": "#bodyDiv p",
            "rss_url": "SkyNewsArabiaBs"
        },
        {
            "id": "203",
            "name": "\u0635\u062d\u064a\u0641\u0629 \u0627\u0644\u064a\u0648\u0645 \u2013 \u0627\u0642\u062a\u0635\u0627\u062f",
            "text_id_pars": null,
            "rss_url": "alyaum_eco"
        },
        {
            "id": "204",
            "name": "\u062c\u0631\u064a\u062f\u0629 \u0627\u0644\u0628\u0648\u0631\u0635\u0629",
            "text_id_pars": null,
            "rss_url": "alborsanews"
        },
        {
            "id": "205",
            "name": "\u0627\u0644\u062d\u064a\u0627\u0629 \u0627\u0642\u062a\u0635\u0627\u062f",
            "text_id_pars": null,
            "rss_url": "Alhayat_Bus"
        },
        {
            "id": "206",
            "name": "\u0634\u0628\u0643\u0629 \u0645\u0628\u0627\u0634\u0631 \u0645\u0635\u0631",
            "text_id_pars": null,
            "rss_url": "MMisrNetwork"
        },
        {
            "id": "207",
            "name": "\u0647\u064a\u0626\u0629 \u0627\u0644\u0633\u0648\u0642 \u0627\u0644\u0645\u0627\u0644\u064a\u0647 \u0627\u0644\u0633\u0639\u0648\u062f\u064a\u0647",
            "text_id_pars": null,
            "rss_url": "SaudiCMA"
        },
        {
            "id": "208",
            "name": "\u0641\u0648\u0631\u0628\u0633 \u0627\u0644\u0634\u0631\u0642 \u0627\u0644\u0623\u0648\u0633\u0637",
            "text_id_pars": null,
            "rss_url": "ForbesME"
        },
        {
            "id": "209",
            "name": "\u0623\u0631\u064a\u0628\u064a\u0627\u0646 \u0628\u0632\u0646\u0633",
            "text_id_pars": null,
            "rss_url": "AB_Arabic"
        },
        {
            "id": "210",
            "name": "The Economist",
            "text_id_pars": null,
            "rss_url": "TheEconomist"
        },
        {
            "id": "211",
            "name": "World Economic Forum",
            "text_id_pars": null,
            "rss_url": "wef"
        },
        {
            "id": "212",
            "name": "Financial Times",
            "text_id_pars": null,
            "rss_url": "FinancialTimes"
        },
        {
            "id": "213",
            "name": "Fortune",
            "text_id_pars": null,
            "rss_url": "FortuneMagazine"
        },
        {
            "id": "214",
            "name": "CNNMoney",
            "text_id_pars": null,
            "rss_url": "CNNMoney"
        },
        {
            "id": "215",
            "name": "NYT Business",
            "text_id_pars": null,
            "rss_url": "nytimesbusiness"
        },
        {
            "id": "216",
            "name": "Les Echos",
            "text_id_pars": null,
            "rss_url": "LesEchos"
        },
        {
            "id": "217",
            "name": "Les Affaires",
            "text_id_pars": null,
            "rss_url": "la_lesaffaires"
        },
        {
            "id": "218",
            "name": "Le Devoir",
            "text_id_pars": null,
            "rss_url": "LeDevoir"
        },
        {
            "id": "219",
            "name": "Bahrain Olympic",
            "text_id_pars": null,
            "rss_url": "BahrainOlympic"
        },
        {
            "id": "220",
            "name": "beIN SPORTS MENA",
            "text_id_pars": ".main_article_wysiwig p",
            "rss_url": "beINSPORTS_MENA"
        },
        {
            "id": "221",
            "name": "\u0627\u0644\u0642\u062f\u0633 \u0627\u0644\u0639\u0631\u0628\u064a",
            "text_id_pars": null,
            "rss_url": "alqudsalarabi"
        },
        {
            "id": "222",
            "name": "KHBARNA Maroc",
            "text_id_pars": "",
            "rss_url": "KHBARNAMAROC"
        },
        {
            "id": "223",
            "name": "\u0627\u0644\u0645\u063a\u0631\u0628 \u0627\u0644\u0639\u0631\u0628\u064a",
            "text_id_pars": null,
            "rss_url": "AlArabiya_NAF"
        },
        {
            "id": "224",
            "name": "Morocco Today",
            "text_id_pars": "",
            "rss_url": "almaghribtoday"
        },
        {
            "id": "225",
            "name": "\u062c\u0631\u064a\u062f\u0629 \u0627\u0644\u0623\u062e\u0628\u0627\u0631",
            "text_id_pars": ".field-content p",
            "rss_url": "AlakhbarNews"
        },
        {
            "id": "226",
            "name": "\u0627\u0644\u0623\u0633\u0648\u0627\u0642 \u0627\u0644\u0639\u0631\u0628\u064a\u0629",
            "text_id_pars": ".article-body p",
            "rss_url": "AlArabiya_Bn"
        }
    ]
}